{
  "Statuses": {
    "ApplicationSubmitted": "200.02",
    "LeadCreated": "200.01",
    "InitialOfferGiven": "200.03",
    "InitialOfferSelected": "200.04",
    "NotInterested": "200.15",
    "Finaloffermade": "200.06",
    "FinalofferAccepted": "200.07",
    "Rejected": "200.17"
  },
  "reApplyTimeFrameDays": "90",
  "reApplyStatuses": [
    "200.14",
    "200.15",
    "200.16",
    "200.17"
  ],
  "PrimaryCreditBureau": "CIBIL",
  "SecondaryCreditBureau": "CRIF"
}