{
	"id": "3aeb5b10-5798-3014-8501-fcf3c555a99c",
	"name": "Score Card",
	"description": "",
	"order": [
		"06ac6117-740e-ceac-5e2f-94538c4e6099",
		"bb61f540-0b58-8fdd-9100-0513b8033723",
		"fbf54239-4956-e42e-d3e7-f9d93ae07f05"
	],
	"folders": [],
	"timestamp": 1479284418151,
	"owner": "1124536",
	"public": false,
	"requests": [
		{
			"id": "06ac6117-740e-ceac-5e2f-94538c4e6099",
			"headers": "Authorization: Bearer eyJhbGciOiJIUzI1NiIsInR5cCI6IkpXVCJ9.eyJpc3MiOiJteS1hcHAiLCJpYXQiOiIyMDE1LTEwLTA5VDA1OjExOjI3LjUzNzc3MjdaIiwiZXhwIjpudWxsLCJzdWIiOm51bGwsInRlbmFudCI6Im15LXRlbmFudCIsInNjb3BlIjpudWxsfQ.vVcomx0eqAs8WvFWEB-ntIB8kaijAqEzXB1AC8bNvaM\nContent-Type: application/json\n",
			"url": "localhost:5000/scorecard/initialoffer/2",
			"preRequestScript": null,
			"pathVariables": {},
			"method": "GET",
			"data": null,
			"dataMode": "params",
			"version": 2,
			"tests": null,
			"currentHelper": "normal",
			"helperAttributes": {},
			"time": 1479366818791,
			"name": "localhost:5000/scorecard/initialoffer/2",
			"description": "",
			"collectionId": "3aeb5b10-5798-3014-8501-fcf3c555a99c",
			"responses": []
		},
		{
			"id": "bb61f540-0b58-8fdd-9100-0513b8033723",
			"headers": "Authorization: Bearer eyJhbGciOiJIUzI1NiIsInR5cCI6IkpXVCJ9.eyJpc3MiOiJteS1hcHAiLCJpYXQiOiIyMDE1LTEwLTA5VDA1OjExOjI3LjUzNzc3MjdaIiwiZXhwIjpudWxsLCJzdWIiOm51bGwsInRlbmFudCI6Im15LXRlbmFudCIsInNjb3BlIjpudWxsfQ.vVcomx0eqAs8WvFWEB-ntIB8kaijAqEzXB1AC8bNvaM\nContent-Type: application/x-www-form-urlencoded\n",
			"url": "localhost:5000/scorecard/initialoffer",
			"preRequestScript": null,
			"pathVariables": {},
			"method": "POST",
			"data": [
				{
					"key": "applicationNumber",
					"value": "2",
					"type": "text",
					"enabled": true
				}
			],
			"dataMode": "urlencoded",
			"version": 2,
			"tests": null,
			"currentHelper": "normal",
			"helperAttributes": {},
			"time": 1479544743616,
			"name": "POST localhost:5000/scorecard/initialoffer/2",
			"description": "",
			"collectionId": "3aeb5b10-5798-3014-8501-fcf3c555a99c",
			"responses": []
		},
		{
			"id": "fbf54239-4956-e42e-d3e7-f9d93ae07f05",
			"headers": "Authorization: Bearer eyJhbGciOiJIUzI1NiIsInR5cCI6IkpXVCJ9.eyJpc3MiOiJteS1hcHAiLCJpYXQiOiIyMDE1LTEwLTA5VDA1OjExOjI3LjUzNzc3MjdaIiwiZXhwIjpudWxsLCJzdWIiOm51bGwsInRlbmFudCI6Im15LXRlbmFudCIsInNjb3BlIjpudWxsfQ.vVcomx0eqAs8WvFWEB-ntIB8kaijAqEzXB1AC8bNvaM\nContent-Type: application/x-www-form-urlencoded\n",
			"url": "192.168.1.59:6007/1234567890S/initialoffer",
			"pathVariables": {},
			"preRequestScript": null,
			"method": "POST",
			"collectionId": "3aeb5b10-5798-3014-8501-fcf3c555a99c",
			"data": [
				{
					"key": "",
					"value": "",
					"type": "text",
					"enabled": true
				}
			],
			"dataMode": "urlencoded",
			"name": "192.168.1.59:6007/1234567890S/initialoffer",
			"description": "",
			"descriptionFormat": "html",
			"time": 1479807095645,
			"version": 2,
			"responses": [],
			"tests": null,
			"currentHelper": "normal",
			"helperAttributes": {}
		}
	]
}