{
  "version": "1.0.0-dev",
  "description": "CapitalAlliance.ApplicationProcessor.Client",
  "authors": [
    "vinita.s"
  ],
  "tags": [
    ""
  ],
  "projectUrl": "",
  "licenseUrl": "",
  "frameworks": {
    "dnx451": {
      "frameworkAssemblies": {
        "System.Threading.Tasks": "4.0.0.0"
      },
      "dependencies": {
        "Jil": "2.14.3",
        "RestSharp": "105.2.3"
      }
    }
  },
  "dependencies": {
    "CapitalAlliance.ApplicationProcessor.Abstractions": "",
    "LendFoundry.Foundation.Logging": "1.0.7-*",
    "LendFoundry.Foundation.Services": "1.0.9-*",
    "LendFoundry.Security.Tokens": "1.0.6-*",
    "Microsoft.Framework.DependencyInjection.Abstractions": "1.0.0-beta8"
  }
}